{"data":[{"date":"2026-05-29","checkIn":"2026-05-29T00:53:00.000Z","checkOut":"2026-05-29T10:15:00.000Z","status":"NORMAL","lateMinutes":0,"workDuration":562,"isInsideGeofence":true,"distanceFromBranch":null},{"date":"2026-05-28","checkIn":"2026-05-28T00:53:00.000Z","checkOut":"2026-05-28T10:15:00.000Z","status":"NORMAL","lateMinutes":0,"workDuration":562,"isInsideGeofence":true,"distanceFromBranch":null},{"date":"2026-05-27","checkIn":"2026-05-27T00:53:00.000Z","checkOut":"2026-05-27T10:15:00.000Z","status":"NORMAL","lateMinutes":0,"workDuration":562,"isInsideGeofence":true,"distanceFromBranch":null},{"date":"2026-05-26","checkIn":"2026-05-26T00:53:00.000Z","checkOut":"2026-05-26T10:15:00.000Z","status":"NORMAL","lateMinutes":0,"workDuration":562,"isInsideGeofence":true,"distanceFromBranch":null},{"date":"2026-05-25","checkIn":"2026-05-25T00:53:00.000Z","checkOut":"2026-05-25T10:15:00.000Z","status":"NORMAL","lateMinutes":0,"workDuration":562,"isInsideGeofence":true,"distanceFromBranch":null},{"date":"2026-05-22","checkIn":"2026-05-22T00:53:00.000Z","checkOut":"2026-05-22T10:15:00.000Z","status":"NORMAL","lateMinutes":0,"workDuration":562,"isInsideGeofence":true,"distanceFromBranch":null},{"date":"2026-05-21","checkIn":"2026-05-21T00:53:00.000Z","checkOut":"2026-05-21T10:15:00.000Z","status":"NORMAL","lateMinutes":0,"workDuration":562,"isInsideGeofence":true,"distanceFromBranch":null},{"date":"2026-05-20","checkIn":"2026-05-20T00:53:00.000Z","checkOut":"2026-05-20T10:15:00.000Z","status":"NORMAL","lateMinutes":0,"workDuration":562,"isInsideGeofence":true,"distanceFromBranch":null},{"date":"2026-05-19","checkIn":"2026-05-19T00:53:00.000Z","checkOut":"2026-05-19T10:16:00.000Z","status":"NORMAL","lateMinutes":0,"workDuration":563,"isInsideGeofence":true,"distanceFromBranch":null},{"date":"2026-05-18","checkIn":"2026-05-18T00:53:00.000Z","checkOut":"2026-05-18T10:16:00.000Z","status":"NORMAL","lateMinutes":0,"workDuration":563,"isInsideGeofence":true,"distanceFromBranch":null},{"date":"2026-05-15","checkIn":"2026-05-15T00:53:00.000Z","checkOut":"2026-05-15T10:16:00.000Z","status":"NORMAL","lateMinutes":0,"workDuration":563,"isInsideGeofence":true,"distanceFromBranch":null},{"date":"2026-05-14","checkIn":"2026-05-14T00:53:00.000Z","checkOut":"2026-05-14T10:16:00.000Z","status":"NORMAL","lateMinutes":0,"workDuration":563,"isInsideGeofence":true,"distanceFromBranch":null},{"date":"2026-05-13","checkIn":"2026-05-13T00:53:00.000Z","checkOut":"2026-05-13T10:16:00.000Z","status":"NORMAL","lateMinutes":0,"workDuration":563,"isInsideGeofence":true,"distanceFromBranch":null},{"date":"2026-05-12","checkIn":"2026-05-12T00:53:00.000Z","checkOut":"2026-05-12T10:16:00.000Z","status":"NORMAL","lateMinutes":0,"workDuration":563,"isInsideGeofence":true,"distanceFromBranch":null},{"date":"2026-05-11","checkIn":"2026-05-11T00:53:00.000Z","checkOut":"2026-05-11T10:16:00.000Z","status":"NORMAL","lateMinutes":0,"workDuration":563,"isInsideGeofence":true,"distanceFromBranch":null},{"date":"2026-05-08","checkIn":"2026-05-08T00:53:00.000Z","checkOut":"2026-05-08T10:16:00.000Z","status":"NORMAL","lateMinutes":0,"workDuration":563,"isInsideGeofence":true,"distanceFromBranch":null},{"date":"2026-05-07","checkIn":"2026-05-07T00:53:00.000Z","checkOut":"2026-05-07T10:16:00.000Z","status":"NORMAL","lateMinutes":0,"workDuration":563,"isInsideGeofence":true,"distanceFromBranch":null},{"date":"2026-05-06","checkIn":"2026-05-06T00:53:00.000Z","checkOut":"2026-05-06T10:16:00.000Z","status":"NORMAL","lateMinutes":0,"workDuration":563,"isInsideGeofence":true,"distanceFromBranch":null},{"date":"2026-05-05","checkIn":"2026-05-05T00:53:00.000Z","checkOut":"2026-05-05T10:16:00.000Z","status":"NORMAL","lateMinutes":0,"workDuration":563,"isInsideGeofence":true,"distanceFromBranch":null},{"date":"2026-05-04","checkIn":"2026-05-04T00:53:00.000Z","checkOut":"2026-05-04T10:16:00.000Z","status":"NORMAL","lateMinutes":0,"workDuration":563,"isInsideGeofence":true,"distanceFromBranch":null}],"meta":{"page":1,"limit":20,"total":253,"totalPages":13}}